{
  "project_info": {
    "project_number": "214426445611",
    "firebase_url": "https://workfast24-26747.firebaseio.com",
    "project_id": "workfast24-26747",
    "storage_bucket": "workfast24-26747.appspot.com"
  },
  "client": [
    {
      "client_info": {
        "mobilesdk_app_id": "1:214426445611:android:f52198b8f259dc55",
        "android_client_info": {
          "package_name": "ru.workfast24.app"
        }
      },
      "oauth_client": [
        {
          "client_id": "214426445611-aobpo0ks2s6i0ub6pd3atvpc7bk640jv.apps.googleusercontent.com",
          "client_type": 3
        }
      ],
      "api_key": [
        {
          "current_key": "AIzaSyAgbzO3MXTBk9cvmVkdvWJqa2wr65RYcKw"
        }
      ],
      "services": {
        "analytics_service": {
          "status": 1
        },
        "appinvite_service": {
          "status": 1,
          "other_platform_oauth_client": []
        },
        "ads_service": {
          "status": 2
        }
      }
    }
  ],
  "configuration_version": "1"
}